{
    "status": "success",
    "status_code": 200,
    "message": "User chats fetched successfully!",
    "data": {
        "current_page": 1,
        "data": [
            {
                "id": 4087,
                "created_by": 3968,
                "org_id": 10,
                "status": "ongoing",
                "lead_score": 0,
                "created_at": "2024-08-30T07:41:07.000000Z",
                "updated_at": "2024-09-02T13:10:17.000000Z",
                "msg_count": 37,
                "creator": {
                    "id": 3968,
                    "name": null,
                    "email": "223.185.41.116",
                    "phone": null,
                    "email_verified_at": null,
                    "password_updated": 0,
                    "created_at": "2024-08-30T07:41:07.000000Z",
                    "updated_at": "2024-08-30T11:34:11.000000Z",
                    "device": "desktop",
                    "browser": "Chrome",
                    "os": "Windows",
                    "city": "Kharar",
                    "country": {
                        "id": 103,
                        "name": "India",
                        "code": "IN",
                        "phone_code": "91"
                    }
                }
            },
            {
                "id": 4085,
                "created_by": 3967,
                "org_id": 10,
                "status": "ongoing",
                "lead_score": 0,
                "created_at": "2024-08-30T05:04:51.000000Z",
                "updated_at": "2024-08-31T12:04:23.000000Z",
                "msg_count": 291,
                "creator": {
                    "id": 3967,
                    "name": null,
                    "email": "182.64.95.20",
                    "phone": null,
                    "email_verified_at": null,
                    "password_updated": 0,
                    "created_at": "2024-08-30T05:04:51.000000Z",
                    "updated_at": "2024-08-30T09:37:44.000000Z",
                    "device": "smartphone",
                    "browser": "Chrome Mobile",
                    "os": "Android",
                    "city": "Sultanpur",
                    "country": {
                        "id": 103,
                        "name": "India",
                        "code": "IN",
                        "phone_code": "91"
                    }
                }
            },
            {
                "id": 4061,
                "created_by": 3957,
                "org_id": 10,
                "status": "ongoing",
                "lead_score": 0,
                "created_at": "2024-08-23T09:57:11.000000Z",
                "updated_at": "2024-08-31T07:04:52.000000Z",
                "msg_count": 22,
                "creator": {
                    "id": 3957,
                    "name": "hello",
                    "email": "hello@gmail.com",
                    "phone": "5885485444",
                    "email_verified_at": null,
                    "password_updated": 0,
                    "created_at": "2024-08-24T05:28:57.000000Z",
                    "updated_at": "2024-08-30T07:41:50.000000Z",
                    "device": "desktop",
                    "browser": "Chrome",
                    "os": "Windows",
                    "city": "Lucknow",
                    "country": {
                        "id": 103,
                        "name": "India",
                        "code": "IN",
                        "phone_code": "91"
                    }
                }
            },
            {
                "id": 4092,
                "created_by": 3971,
                "org_id": 10,
                "status": "ongoing",
                "lead_score": 0,
                "created_at": "2024-08-30T10:13:26.000000Z",
                "updated_at": "2024-08-30T10:16:00.000000Z",
                "msg_count": 8,
                "creator": {
                    "id": 3971,
                    "name": null,
                    "email": "42.108.27.181",
                    "phone": null,
                    "email_verified_at": null,
                    "password_updated": 0,
                    "created_at": "2024-08-30T10:13:26.000000Z",
                    "updated_at": "2024-08-30T10:13:26.000000Z",
                    "device": "smartphone",
                    "browser": "Chrome Mobile",
                    "os": "Android",
                    "city": "Delhi",
                    "country": {
                        "id": 103,
                        "name": "India",
                        "code": "IN",
                        "phone_code": "91"
                    }
                }
            },
            {
                "id": 4090,
                "created_by": 3424,
                "org_id": 10,
                "status": "ongoing",
                "lead_score": 0,
                "created_at": "2024-08-30T07:47:46.000000Z",
                "updated_at": "2024-08-30T07:49:00.000000Z",
                "msg_count": 7,
                "creator": {
                    "id": 3424,
                    "name": "Kaushal",
                    "email": "kaushalnbt@gmail.com",
                    "phone": "6393100061",
                    "email_verified_at": "2024-01-17T08:55:10.000000Z",
                    "password_updated": 1,
                    "created_at": "2023-12-29T10:53:46.000000Z",
                    "updated_at": "2024-08-30T07:49:00.000000Z",
                    "device": "desktop",
                    "browser": "Chrome",
                    "os": "Windows",
                    "city": "Lucknow",
                    "country": {
                        "id": 103,
                        "name": "India",
                        "code": "IN",
                        "phone_code": "91"
                    }
                }
            },
            {
                "id": 4089,
                "created_by": 3957,
                "org_id": 10,
                "status": "ongoing",
                "lead_score": 0,
                "created_at": "2024-08-30T07:43:29.000000Z",
                "updated_at": "2024-08-30T07:47:09.000000Z",
                "msg_count": 18,
                "creator": {
                    "id": 3957,
                    "name": "hello",
                    "email": "hello@gmail.com",
                    "phone": "5885485444",
                    "email_verified_at": null,
                    "password_updated": 0,
                    "created_at": "2024-08-24T05:28:57.000000Z",
                    "updated_at": "2024-08-30T07:41:50.000000Z",
                    "device": "desktop",
                    "browser": "Chrome",
                    "os": "Windows",
                    "city": "Lucknow",
                    "country": {
                        "id": 103,
                        "name": "India",
                        "code": "IN",
                        "phone_code": "91"
                    }
                }
            },
            {
                "id": 4084,
                "created_by": 3966,
                "org_id": 10,
                "status": "ongoing",
                "lead_score": 0,
                "created_at": "2024-08-29T07:27:51.000000Z",
                "updated_at": "2024-08-30T04:56:18.000000Z",
                "msg_count": 149,
                "creator": {
                    "id": 3966,
                    "name": null,
                    "email": "223.235.217.118",
                    "phone": null,
                    "email_verified_at": null,
                    "password_updated": 0,
                    "created_at": "2024-08-28T05:52:43.000000Z",
                    "updated_at": "2024-08-29T11:48:27.000000Z",
                    "device": "desktop",
                    "browser": "Chrome",
                    "os": "Windows",
                    "city": "Lucknow",
                    "country": {
                        "id": 103,
                        "name": "India",
                        "code": "IN",
                        "phone_code": "91"
                    }
                }
            },
            {
                "id": 4074,
                "created_by": 3961,
                "org_id": 10,
                "status": "ongoing",
                "lead_score": 0,
                "created_at": "2024-08-24T10:51:03.000000Z",
                "updated_at": "2024-08-29T09:19:07.000000Z",
                "msg_count": 31,
                "creator": {
                    "id": 3961,
                    "name": null,
                    "email": "138.199.35.220",
                    "phone": null,
                    "email_verified_at": null,
                    "password_updated": 0,
                    "created_at": "2024-08-24T10:43:25.000000Z",
                    "updated_at": "2024-08-24T10:43:25.000000Z",
                    "device": "desktop",
                    "browser": "Chrome",
                    "os": "GNU\/Linux",
                    "city": "Los Angeles",
                    "country": {
                        "id": 236,
                        "name": "United States",
                        "code": "US",
                        "phone_code": "1"
                    }
                }
            },
            {
                "id": 4083,
                "created_by": 3929,
                "org_id": 10,
                "status": "daily_limit_reached",
                "lead_score": 0,
                "created_at": "2024-08-28T05:52:43.000000Z",
                "updated_at": "2024-08-28T12:27:29.000000Z",
                "msg_count": 7,
                "creator": {
                    "id": 3929,
                    "name": "Adarsh Yadav",
                    "email": "itsadarsh33@gmail.com",
                    "phone": "6392832171",
                    "email_verified_at": null,
                    "password_updated": 0,
                    "created_at": "2024-08-15T05:34:23.000000Z",
                    "updated_at": "2024-08-22T08:17:41.000000Z",
                    "device": "desktop",
                    "browser": "Chrome",
                    "os": "Windows",
                    "city": "Lucknow",
                    "country": {
                        "id": 103,
                        "name": "India",
                        "code": "IN",
                        "phone_code": "91"
                    }
                }
            },
            {
                "id": 4047,
                "created_by": 3929,
                "org_id": 10,
                "status": "new",
                "lead_score": 0,
                "created_at": "2024-08-20T06:08:45.000000Z",
                "updated_at": "2024-08-28T09:18:25.000000Z",
                "msg_count": 41,
                "creator": {
                    "id": 3929,
                    "name": "Adarsh Yadav",
                    "email": "itsadarsh33@gmail.com",
                    "phone": "6392832171",
                    "email_verified_at": null,
                    "password_updated": 0,
                    "created_at": "2024-08-15T05:34:23.000000Z",
                    "updated_at": "2024-08-22T08:17:41.000000Z",
                    "device": "desktop",
                    "browser": "Chrome",
                    "os": "Windows",
                    "city": "Lucknow",
                    "country": {
                        "id": 103,
                        "name": "India",
                        "code": "IN",
                        "phone_code": "91"
                    }
                }
            },
            {
                "id": 4076,
                "created_by": 3853,
                "org_id": 10,
                "status": "ongoing",
                "lead_score": 0,
                "created_at": "2024-08-24T11:10:08.000000Z",
                "updated_at": "2024-08-24T11:31:34.000000Z",
                "msg_count": 18,
                "creator": {
                    "id": 3853,
                    "name": "Siddhant Jain",
                    "email": "siddhantjain209@gmail.com",
                    "phone": "9575602399",
                    "email_verified_at": null,
                    "password_updated": 0,
                    "created_at": "2024-07-08T08:20:59.000000Z",
                    "updated_at": "2024-09-03T06:31:36.000000Z",
                    "device": "desktop",
                    "browser": "Chrome",
                    "os": "GNU\/Linux",
                    "city": "Los Angeles",
                    "country": {
                        "id": 103,
                        "name": "India",
                        "code": "IN",
                        "phone_code": "91"
                    }
                }
            },
            {
                "id": 4075,
                "created_by": 3853,
                "org_id": 10,
                "status": "ongoing",
                "lead_score": 0,
                "created_at": "2024-08-24T11:02:46.000000Z",
                "updated_at": "2024-08-24T11:09:12.000000Z",
                "msg_count": 13,
                "creator": {
                    "id": 3853,
                    "name": "Siddhant Jain",
                    "email": "siddhantjain209@gmail.com",
                    "phone": "9575602399",
                    "email_verified_at": null,
                    "password_updated": 0,
                    "created_at": "2024-07-08T08:20:59.000000Z",
                    "updated_at": "2024-09-03T06:31:36.000000Z",
                    "device": "desktop",
                    "browser": "Chrome",
                    "os": "GNU\/Linux",
                    "city": "Los Angeles",
                    "country": {
                        "id": 103,
                        "name": "India",
                        "code": "IN",
                        "phone_code": "91"
                    }
                }
            },
            {
                "id": 4073,
                "created_by": 3853,
                "org_id": 10,
                "status": "ongoing",
                "lead_score": 0,
                "created_at": "2024-08-24T10:43:25.000000Z",
                "updated_at": "2024-08-24T10:51:01.000000Z",
                "msg_count": 8,
                "creator": {
                    "id": 3853,
                    "name": "Siddhant Jain",
                    "email": "siddhantjain209@gmail.com",
                    "phone": "9575602399",
                    "email_verified_at": null,
                    "password_updated": 0,
                    "created_at": "2024-07-08T08:20:59.000000Z",
                    "updated_at": "2024-09-03T06:31:36.000000Z",
                    "device": "desktop",
                    "browser": "Chrome",
                    "os": "GNU\/Linux",
                    "city": "Los Angeles",
                    "country": {
                        "id": 103,
                        "name": "India",
                        "code": "IN",
                        "phone_code": "91"
                    }
                }
            },
            {
                "id": 4072,
                "created_by": 3853,
                "org_id": 10,
                "status": "ongoing",
                "lead_score": 0,
                "created_at": "2024-08-24T10:16:47.000000Z",
                "updated_at": "2024-08-24T10:21:27.000000Z",
                "msg_count": 9,
                "creator": {
                    "id": 3853,
                    "name": "Siddhant Jain",
                    "email": "siddhantjain209@gmail.com",
                    "phone": "9575602399",
                    "email_verified_at": null,
                    "password_updated": 0,
                    "created_at": "2024-07-08T08:20:59.000000Z",
                    "updated_at": "2024-09-03T06:31:36.000000Z",
                    "device": "desktop",
                    "browser": "Chrome",
                    "os": "GNU\/Linux",
                    "city": "Los Angeles",
                    "country": {
                        "id": 103,
                        "name": "India",
                        "code": "IN",
                        "phone_code": "91"
                    }
                }
            },
            {
                "id": 4071,
                "created_by": 3890,
                "org_id": 10,
                "status": "ongoing",
                "lead_score": 0,
                "created_at": "2024-08-24T09:54:00.000000Z",
                "updated_at": "2024-08-24T10:01:52.000000Z",
                "msg_count": 9,
                "creator": {
                    "id": 3890,
                    "name": null,
                    "email": "84.17.47.122",
                    "phone": null,
                    "email_verified_at": null,
                    "password_updated": 0,
                    "created_at": "2024-08-13T05:30:07.000000Z",
                    "updated_at": "2024-08-13T05:30:07.000000Z",
                    "device": "desktop",
                    "browser": "Chrome",
                    "os": "GNU\/Linux",
                    "city": "Amsterdam",
                    "country": {
                        "id": 157,
                        "name": "Netherlands",
                        "code": "NL",
                        "phone_code": "31"
                    }
                }
            },
            {
                "id": 4070,
                "created_by": 3537,
                "org_id": 10,
                "status": "ongoing",
                "lead_score": 0,
                "created_at": "2024-08-24T09:28:28.000000Z",
                "updated_at": "2024-08-24T09:49:24.000000Z",
                "msg_count": 15,
                "creator": {
                    "id": 3537,
                    "name": "hello",
                    "email": "hello@gimail.com",
                    "phone": "5885485444",
                    "email_verified_at": null,
                    "password_updated": 0,
                    "created_at": "2024-05-22T06:32:53.000000Z",
                    "updated_at": "2024-08-24T09:42:28.000000Z",
                    "device": "desktop",
                    "browser": "Chrome",
                    "os": "Windows",
                    "city": "Lucknow",
                    "country": {
                        "id": 103,
                        "name": "India",
                        "code": "IN",
                        "phone_code": "91"
                    }
                }
            },
            {
                "id": 4069,
                "created_by": 3881,
                "org_id": 10,
                "status": "ongoing",
                "lead_score": 0,
                "created_at": "2024-08-24T08:46:39.000000Z",
                "updated_at": "2024-08-24T08:46:52.000000Z",
                "msg_count": 3,
                "creator": {
                    "id": 3881,
                    "name": null,
                    "email": "193.176.84.3",
                    "phone": null,
                    "email_verified_at": null,
                    "password_updated": 0,
                    "created_at": "2024-08-12T08:20:19.000000Z",
                    "updated_at": "2024-08-12T08:20:19.000000Z",
                    "device": "desktop",
                    "browser": "Chrome",
                    "os": "GNU\/Linux",
                    "city": "Bucharest",
                    "country": {
                        "id": 182,
                        "name": "Romania",
                        "code": "RO",
                        "phone_code": "40"
                    }
                }
            },
            {
                "id": 4068,
                "created_by": 3853,
                "org_id": 10,
                "status": "daily_limit_reached",
                "lead_score": 0,
                "created_at": "2024-08-24T08:21:23.000000Z",
                "updated_at": "2024-08-24T08:45:45.000000Z",
                "msg_count": 19,
                "creator": {
                    "id": 3853,
                    "name": "Siddhant Jain",
                    "email": "siddhantjain209@gmail.com",
                    "phone": "9575602399",
                    "email_verified_at": null,
                    "password_updated": 0,
                    "created_at": "2024-07-08T08:20:59.000000Z",
                    "updated_at": "2024-09-03T06:31:36.000000Z",
                    "device": "desktop",
                    "browser": "Chrome",
                    "os": "GNU\/Linux",
                    "city": "Los Angeles",
                    "country": {
                        "id": 103,
                        "name": "India",
                        "code": "IN",
                        "phone_code": "91"
                    }
                }
            },
            {
                "id": 3912,
                "created_by": 3853,
                "org_id": 10,
                "status": "ongoing",
                "lead_score": 0,
                "created_at": "2024-07-08T08:20:59.000000Z",
                "updated_at": "2024-08-24T08:21:05.000000Z",
                "msg_count": 66,
                "creator": {
                    "id": 3853,
                    "name": "Siddhant Jain",
                    "email": "siddhantjain209@gmail.com",
                    "phone": "9575602399",
                    "email_verified_at": null,
                    "password_updated": 0,
                    "created_at": "2024-07-08T08:20:59.000000Z",
                    "updated_at": "2024-09-03T06:31:36.000000Z",
                    "device": "desktop",
                    "browser": "Chrome",
                    "os": "GNU\/Linux",
                    "city": "Los Angeles",
                    "country": {
                        "id": 103,
                        "name": "India",
                        "code": "IN",
                        "phone_code": "91"
                    }
                }
            },
            {
                "id": 4067,
                "created_by": 3853,
                "org_id": 10,
                "status": "ongoing",
                "lead_score": 0,
                "created_at": "2024-08-24T08:11:18.000000Z",
                "updated_at": "2024-08-24T08:13:54.000000Z",
                "msg_count": 9,
                "creator": {
                    "id": 3853,
                    "name": "Siddhant Jain",
                    "email": "siddhantjain209@gmail.com",
                    "phone": "9575602399",
                    "email_verified_at": null,
                    "password_updated": 0,
                    "created_at": "2024-07-08T08:20:59.000000Z",
                    "updated_at": "2024-09-03T06:31:36.000000Z",
                    "device": "desktop",
                    "browser": "Chrome",
                    "os": "GNU\/Linux",
                    "city": "Los Angeles",
                    "country": {
                        "id": 103,
                        "name": "India",
                        "code": "IN",
                        "phone_code": "91"
                    }
                }
            }
        ],
        "first_page_url": "https:\/\/testapi.beyondchats.com\/api\/get_all_org_chats?page=1",
        "from": 1,
        "last_page": 14,
        "last_page_url": "https:\/\/testapi.beyondchats.com\/api\/get_all_org_chats?page=14",
        "links": [
            {
                "url": null,
                "label": "&laquo; Previous",
                "active": false
            },
            {
                "url": "https:\/\/testapi.beyondchats.com\/api\/get_all_org_chats?page=1",
                "label": "1",
                "active": true
            },
            {
                "url": "https:\/\/testapi.beyondchats.com\/api\/get_all_org_chats?page=2",
                "label": "2",
                "active": false
            },
            {
                "url": "https:\/\/testapi.beyondchats.com\/api\/get_all_org_chats?page=3",
                "label": "3",
                "active": false
            },
            {
                "url": "https:\/\/testapi.beyondchats.com\/api\/get_all_org_chats?page=4",
                "label": "4",
                "active": false
            },
            {
                "url": "https:\/\/testapi.beyondchats.com\/api\/get_all_org_chats?page=5",
                "label": "5",
                "active": false
            },
            {
                "url": "https:\/\/testapi.beyondchats.com\/api\/get_all_org_chats?page=6",
                "label": "6",
                "active": false
            },
            {
                "url": "https:\/\/testapi.beyondchats.com\/api\/get_all_org_chats?page=7",
                "label": "7",
                "active": false
            },
            {
                "url": "https:\/\/testapi.beyondchats.com\/api\/get_all_org_chats?page=8",
                "label": "8",
                "active": false
            },
            {
                "url": "https:\/\/testapi.beyondchats.com\/api\/get_all_org_chats?page=9",
                "label": "9",
                "active": false
            },
            {
                "url": "https:\/\/testapi.beyondchats.com\/api\/get_all_org_chats?page=10",
                "label": "10",
                "active": false
            },
            {
                "url": null,
                "label": "...",
                "active": false
            },
            {
                "url": "https:\/\/testapi.beyondchats.com\/api\/get_all_org_chats?page=13",
                "label": "13",
                "active": false
            },
            {
                "url": "https:\/\/testapi.beyondchats.com\/api\/get_all_org_chats?page=14",
                "label": "14",
                "active": false
            },
            {
                "url": "https:\/\/testapi.beyondchats.com\/api\/get_all_org_chats?page=2",
                "label": "Next &raquo;",
                "active": false
            }
        ],
        "next_page_url": "https:\/\/testapi.beyondchats.com\/api\/get_all_org_chats?page=2",
        "path": "https:\/\/testapi.beyondchats.com\/api\/get_all_org_chats",
        "per_page": 10,
        "prev_page_url": null,
        "to": 10,
        "total": 136
    }
}